{
  "images" : [
    {
      "filename" : "Icon-24@2x copy.png",
      "idiom" : "watch",
      "role" : "notificationCenter",
      "scale" : "2x",
      "size" : "24x24",
      "subtype" : "38mm"
    },
    {
      "filename" : "Icon-27.5@2x copy.png",
      "idiom" : "watch",
      "role" : "notificationCenter",
      "scale" : "2x",
      "size" : "27.5x27.5",
      "subtype" : "42mm"
    },
    {
      "filename" : "Icon-29@2x copy.png",
      "idiom" : "watch",
      "role" : "companionSettings",
      "scale" : "2x",
      "size" : "29x29"
    },
    {
      "filename" : "Icon-29@3x copy.png",
      "idiom" : "watch",
      "role" : "companionSettings",
      "scale" : "3x",
      "size" : "29x29"
    },
    {
      "filename" : "Icon-40@2x copy.png",
      "idiom" : "watch",
      "role" : "appLauncher",
      "scale" : "2x",
      "size" : "40x40",
      "subtype" : "38mm"
    },
    {
      "filename" : "Icon-44@2x copy.png",
      "idiom" : "watch",
      "role" : "appLauncher",
      "scale" : "2x",
      "size" : "44x44",
      "subtype" : "40mm"
    },
    {
      "filename" : "Icon-App-50x50@2x-1 copy.png",
      "idiom" : "watch",
      "role" : "appLauncher",
      "scale" : "2x",
      "size" : "50x50",
      "subtype" : "44mm"
    },
    {
      "filename" : "Icon-86@2x copy.png",
      "idiom" : "watch",
      "role" : "quickLook",
      "scale" : "2x",
      "size" : "86x86",
      "subtype" : "38mm"
    },
    {
      "filename" : "Icon-98@2x copy.png",
      "idiom" : "watch",
      "role" : "quickLook",
      "scale" : "2x",
      "size" : "98x98",
      "subtype" : "42mm"
    },
    {
      "filename" : "Icon-App-50x50@2x copy.png",
      "idiom" : "watch",
      "role" : "quickLook",
      "scale" : "2x",
      "size" : "108x108",
      "subtype" : "44mm"
    },
    {
      "filename" : "ItunesArtwork@2x.png",
      "idiom" : "watch-marketing",
      "scale" : "1x",
      "size" : "1024x1024"
    }
  ],
  "info" : {
    "author" : "xcode",
    "version" : 1
  }
}
